…
How many samples in each population across the gradient?

``` r
# Get the data 
nodule_pops<-data.frame(sample_data(field_clean))

# Average number of nodules per plant for each population 
nodule_pops2 <- nodule_pops%>%
  group_by(population.id) %>%
  dplyr::summarize(average=mean(nodule.no))
nodule_pops2
```

    ## # A tibble: 29 × 2
    ##    population.id average
    ##    <chr>           <dbl>
    ##  1 A                3   
    ##  2 BG              10.6 
    ##  3 BI              11   
    ##  4 BJ              12   
    ##  5 BL               9.25
    ##  6 BM               7.5 
    ##  7 BN               9   
    ##  8 BUS             10.3 
    ##  9 D                6.8 
    ## 10 E                6.6 
    ## # ℹ 19 more rows
…
``` r
# Get population breakdown 
nodule_pops2<-nodule_pops%>%
   mutate(region=case_when(latitude < 11 ~ "Tropical", 
                          latitude > 35 ~ "Temperate", 
                          latitude > 25 | latitude <33 ~ "Subtropical"))%>% 
  group_by(population.id, region, latitude)%>%
  tally()%>%
  arrange(desc(region))
nodule_pops2
```

    ## # A tibble: 29 × 4
    ## # Groups:   population.id, region [29]
    ##    population.id region    latitude     n
    ##    <chr>         <chr>        <dbl> <int>
    ##  1 BG            Tropical     10.3      5
    ##  2 BI            Tropical     10.3      3
    ##  3 BJ            Tropical     10.3      1
    ##  4 BL            Tropical     10.4      4
    ##  5 BM            Tropical     10.4      2
    ##  6 BN            Tropical     10.4      5
    ##  7 BUS           Tropical      8.78     3
    ##  8 MIR           Tropical      8.68     3
    ##  9 STH           Tropical      9.48     6
    ## 10 S             Temperate    36.5      4
    ## # ℹ 19 more rows
…
