…
# Get population breakdown 
culture_pops2<-culture_pops%>%
   mutate(region=case_when(latitude < 11 ~ "Tropical", 
                          latitude > 35 ~ "Temperate", 
                          latitude > 25 | latitude <33 ~ "Subtropical"))%>% 
  group_by(population.id, region, latitude)%>%
  tally()%>%
  arrange(desc(region))
culture_pops2
```

    ## # A tibble: 25 × 4
    ## # Groups:   population.id, region [25]
    ##    population.id region    latitude     n
    ##    <chr>         <chr>        <dbl> <int>
    ##  1 BG            Tropical     10.3     10
    ##  2 BI            Tropical     10.3      6
    ##  3 BJ            Tropical     10.3      2
    ##  4 BL            Tropical     10.4      8
    ##  5 BM            Tropical     10.4      4
    ##  6 BN            Tropical     10.4     10
    ##  7 BUS           Tropical      8.78     6
    ##  8 MIR           Tropical      8.68     6
    ##  9 STH           Tropical      9.48    12
    ## 10 S             Temperate    36.5      8
    ## # ℹ 15 more rows
…
